{
	"info": {
		"_postman_id": "18d785a3-0b70-4176-b764-11893d6e9a53",
		"name": "DeOnibus-Public-Boilerplate",
		"schema": "https://schema.getpostman.com/json/collection/v2.1.0/collection.json"
	},
	"item": [
		{
			"name": "Get Routes",
			"request": {
				"method": "GET",
				"header": [
					{
						"key": "X-Parse-Application-Id",
						"value": "LtD1wBDjTJB7CcuF3hNRNmvRI9CQpozYzN7jIxfA",
						"type": "text"
					},
					{
						"key": "X-Parse-REST-API-Key",
						"value": "1TMvuvt9n2qHCqdQ8qpLw7DX6wUQpq2zhq0OGTvp",
						"type": "text"
					},
					{
						"key": "Content-Type",
						"value": "application/json",
						"type": "text"
					}
				],
				"url": {
					"raw": "https://4jehkg0izj.execute-api.us-east-1.amazonaws.com/stage-v0/route",
					"protocol": "https",
					"host": [
						"parseapi",
						"back4app",
						"com"
					],
					"path": [
						"classes",
						"Routes"
					]
				}
			},
			"response": []
		}
	]
}